module gitlab.com/experiencepublic/comms-go-package

go 1.18

require (
	github.com/aws/aws-sdk-go v1.44.75
	github.com/fatih/structs v1.1.0
)

require github.com/jmespath/go-jmespath v0.4.0 // indirect
